%YAML 1.1
%TAG !u! tag:unity3d.com,2011:
--- !u!1045 &1
EditorBuildSettings:
  m_ObjectHideFlags: 0
  serializedVersion: 2
  m_Scenes:
  - enabled: 1
    path: Assets/Scenes/Menu.unity
    guid: 106b83abf0f94f54c8e5fdb6c5d82a54
  - enabled: 1
    path: Assets/Scenes/LoadingScreen.unity
    guid: d416d00f0e9ee8741aa649ea01ca7035
  - enabled: 1
    path: Assets/Scenes/ScoreMenu.unity
    guid: 19ebcaee6c76e8045ae0bc7423791fe3
  - enabled: 1
    path: Assets/Scenes/StatsMenu.unity
    guid: c4e5bf56e6f07ae438f54f85abb1b84e
  - enabled: 1
    path: Assets/Scenes/TheDust2137.unity
    guid: d5e70229889bcf74c8ec2f30b00e5469
  - enabled: 1
    path: Assets/Scenes/FirstLevel.unity
    guid: 2c927e5b660b3ab47a226763535c4b14
  m_configObjects: {}
